Tareas/Single_Cycle_RISCV/simulation/questa/register_file_wave.vcd
$date
	Wed May 28 08:42:02 2025
$end
$version
	Questa Intel Starter FPGA Edition Version 2023.3
$end
$timescale
	1ps
$end

$scope module register_file_tb $end
$var reg 1 ! clk $end
$var reg 5 " A1 [4:0] $end
$var reg 5 # A2 [4:0] $end
$var reg 5 $ A3 [4:0] $end
$var reg 1 % WE3 $end
$var reg 32 & WD3 [31:0] $end
$var wire 1 ' RD1 [31] $end
$var wire 1 ( RD1 [30] $end
$var wire 1 ) RD1 [29] $end
$var wire 1 * RD1 [28] $end
$var wire 1 + RD1 [27] $end
$var wire 1 , RD1 [26] $end
$var wire 1 - RD1 [25] $end
$var wire 1 . RD1 [24] $end
$var wire 1 / RD1 [23] $end
$var wire 1 0 RD1 [22] $end
$var wire 1 1 RD1 [21] $end
$var wire 1 2 RD1 [20] $end
$var wire 1 3 RD1 [19] $end
$var wire 1 4 RD1 [18] $end
$var wire 1 5 RD1 [17] $end
$var wire 1 6 RD1 [16] $end
$var wire 1 7 RD1 [15] $end
$var wire 1 8 RD1 [14] $end
$var wire 1 9 RD1 [13] $end
$var wire 1 : RD1 [12] $end
$var wire 1 ; RD1 [11] $end
$var wire 1 < RD1 [10] $end
$var wire 1 = RD1 [9] $end
$var wire 1 > RD1 [8] $end
$var wire 1 ? RD1 [7] $end
$var wire 1 @ RD1 [6] $end
$var wire 1 A RD1 [5] $end
$var wire 1 B RD1 [4] $end
$var wire 1 C RD1 [3] $end
$var wire 1 D RD1 [2] $end
$var wire 1 E RD1 [1] $end
$var wire 1 F RD1 [0] $end
$var wire 1 G RD2 [31] $end
$var wire 1 H RD2 [30] $end
$var wire 1 I RD2 [29] $end
$var wire 1 J RD2 [28] $end
$var wire 1 K RD2 [27] $end
$var wire 1 L RD2 [26] $end
$var wire 1 M RD2 [25] $end
$var wire 1 N RD2 [24] $end
$var wire 1 O RD2 [23] $end
$var wire 1 P RD2 [22] $end
$var wire 1 Q RD2 [21] $end
$var wire 1 R RD2 [20] $end
$var wire 1 S RD2 [19] $end
$var wire 1 T RD2 [18] $end
$var wire 1 U RD2 [17] $end
$var wire 1 V RD2 [16] $end
$var wire 1 W RD2 [15] $end
$var wire 1 X RD2 [14] $end
$var wire 1 Y RD2 [13] $end
$var wire 1 Z RD2 [12] $end
$var wire 1 [ RD2 [11] $end
$var wire 1 \ RD2 [10] $end
$var wire 1 ] RD2 [9] $end
$var wire 1 ^ RD2 [8] $end
$var wire 1 _ RD2 [7] $end
$var wire 1 ` RD2 [6] $end
$var wire 1 a RD2 [5] $end
$var wire 1 b RD2 [4] $end
$var wire 1 c RD2 [3] $end
$var wire 1 d RD2 [2] $end
$var wire 1 e RD2 [1] $end
$var wire 1 f RD2 [0] $end
$var integer 32 g i $end

$scope module uut $end
$var wire 1 h clk $end
$var wire 1 i A1 [4] $end
$var wire 1 j A1 [3] $end
$var wire 1 k A1 [2] $end
$var wire 1 l A1 [1] $end
$var wire 1 m A1 [0] $end
$var wire 1 n A2 [4] $end
$var wire 1 o A2 [3] $end
$var wire 1 p A2 [2] $end
$var wire 1 q A2 [1] $end
$var wire 1 r A2 [0] $end
$var wire 1 s A3 [4] $end
$var wire 1 t A3 [3] $end
$var wire 1 u A3 [2] $end
$var wire 1 v A3 [1] $end
$var wire 1 w A3 [0] $end
$var wire 1 x WE3 $end
$var wire 1 y WD3 [31] $end
$var wire 1 z WD3 [30] $end
$var wire 1 { WD3 [29] $end
$var wire 1 | WD3 [28] $end
$var wire 1 } WD3 [27] $end
$var wire 1 ~ WD3 [26] $end
$var wire 1 !! WD3 [25] $end
$var wire 1 "! WD3 [24] $end
$var wire 1 #! WD3 [23] $end
$var wire 1 $! WD3 [22] $end
$var wire 1 %! WD3 [21] $end
$var wire 1 &! WD3 [20] $end
$var wire 1 '! WD3 [19] $end
$var wire 1 (! WD3 [18] $end
$var wire 1 )! WD3 [17] $end
$var wire 1 *! WD3 [16] $end
$var wire 1 +! WD3 [15] $end
$var wire 1 ,! WD3 [14] $end
$var wire 1 -! WD3 [13] $end
$var wire 1 .! WD3 [12] $end
$var wire 1 /! WD3 [11] $end
$var wire 1 0! WD3 [10] $end
$var wire 1 1! WD3 [9] $end
$var wire 1 2! WD3 [8] $end
$var wire 1 3! WD3 [7] $end
$var wire 1 4! WD3 [6] $end
$var wire 1 5! WD3 [5] $end
$var wire 1 6! WD3 [4] $end
$var wire 1 7! WD3 [3] $end
$var wire 1 8! WD3 [2] $end
$var wire 1 9! WD3 [1] $end
$var wire 1 :! WD3 [0] $end
$var reg 32 ;! RD1 [31:0] $end
$var reg 32 <! RD2 [31:0] $end
$var integer 32 =! i $end
$upscope $end
$upscope $end
$enddefinitions $end
#0
$dumpvars
0!
b0 "
b0 #
b0 $
0%
b0 &
b0 ;!
b0 <!
bx g
b100000 =!
0F
0E
0D
0C
0B
0A
0@
0?
0>
0=
0<
0;
0:
09
08
07
06
05
04
03
02
01
00
0/
0.
0-
0,
0+
0*
0)
0(
0'
0f
0e
0d
0c
0b
0a
0`
0_
0^
0]
0\
0[
0Z
0Y
0X
0W
0V
0U
0T
0S
0R
0Q
0P
0O
0N
0M
0L
0K
0J
0I
0H
0G
0:!
09!
08!
07!
06!
05!
04!
03!
02!
01!
00!
0/!
0.!
0-!
0,!
0+!
0*!
0)!
0(!
0'!
0&!
0%!
0$!
0#!
0"!
0!!
0~
0}
0|
0{
0z
0y
0x
0w
0v
0u
0t
0s
0r
0q
0p
0o
0n
0m
0l
0k
0j
0i
0h
$end
#5000
1!
1h
b1 "
b10 #
1q
1m
#6000
1%
b1 $
b11011110101011011011111011101111 &
1x
1:!
19!
18!
17!
15!
14!
13!
11!
10!
1/!
1.!
1-!
1+!
1*!
1(!
1'!
1%!
1#!
1!!
1~
1}
1|
1z
1y
1w
#10000
0!
0h
#15000
1!
1h
b10 $
b10010001101000101011001111000 &
0:!
09!
08!
16!
03!
0/!
0-!
1,!
0+!
0*!
0'!
1&!
0#!
0~
0}
0z
0y
0w
1v
b11011110101011011011111011101111 ;!
1F
1E
1D
1C
1A
1@
1?
1=
1<
1;
1:
19
17
16
14
13
11
1/
1-
1,
1+
1*
1(
1'
#20000
0!
0h
#25000
1!
1h
b101 $
b10101011110011011110111100000000 &
07!
06!
05!
04!
12!
1/!
0.!
1-!
1+!
1*!
1'!
0&!
0%!
1$!
1#!
1"!
1}
0|
1{
1y
1w
0v
1u
b10010001101000101011001111000 <!
1c
1b
1a
1`
1]
1\
1Z
1X
1T
1R
1Q
1M
1J
#30000
0!
0h
#35000
1!
1h
b11111 $
b11111111111111111111111111111111 &
1:!
19!
18!
17!
16!
15!
14!
13!
1.!
1)!
1&!
1%!
1~
1|
1z
1v
1t
1s
#40000
0!
0h
#45000
1!
1h
0%
0x
#46000
b101 "
b11111 #
1r
1p
1o
1n
1k
b10101011110011011110111100000000 ;!
b11111111111111111111111111111111 <!
1f
1e
1d
1_
1^
1[
1Y
1W
1V
1U
1S
1P
1O
1N
1L
1K
1I
1H
1G
0F
0E
0D
0C
0A
0@
0?
1>
0:
18
01
10
1.
0,
0*
1)
0(
#47000
b1 "
b1 #
0q
0p
0o
0n
0k
b11011110101011011011111011101111 ;!
b11011110101011011011111011101111 <!
0b
0^
0X
0U
0R
0P
0N
0I
1F
1E
1D
1C
1A
1@
1?
0>
1:
08
11
00
0.
1,
1*
0)
1(
#48000
b1 $
b0 &
0:!
09!
08!
07!
06!
05!
04!
03!
02!
01!
00!
0/!
0.!
0-!
0,!
0+!
0*!
0)!
0(!
0'!
0&!
0%!
0$!
0#!
0"!
0!!
0~
0}
0|
0{
0z
0y
0v
0u
0t
0s
#50000
0!
0h
#55000
1!
1h
#56000
1%
b11 "
b11 $
b1010101010101010101010101010101 &
1x
1:!
18!
16!
14!
12!
10!
1.!
1,!
1*!
1(!
1&!
1$!
1"!
1~
1|
1z
1v
1l
b0 ;!
0F
0E
0D
0C
0A
0@
0?
0=
0<
0;
0:
09
07
06
04
03
01
0/
0-
0,
0+
0*
0(
0'
#60000
0!
0h
#65000
1!
1h
b1010101010101010101010101010101 ;!
1F
1D
1B
1@
1>
1<
1:
18
16
14
12
10
1.
1,
1*
1(
#66000
b0 g
b0 $
b10100000000000000000000000000000 &
0:!
08!
06!
04!
02!
00!
0.!
0,!
0*!
0(!
0&!
0$!
0"!
0~
0|
1{
0z
1y
0w
0v
#70000
0!
0h
#75000
1!
1h
b0 "
0%
0x
0m
0l
b0 ;!
0F
0D
0B
0@
0>
0<
0:
08
06
04
02
00
0.
0,
0*
0(
#76000
b1 g
b1 $
b10100000000000000000000000000001 &
1%
1:!
1w
1x
#80000
0!
0h
#85000
1!
1h
b1 "
0%
0x
1m
b11011110101011011011111011101111 ;!
1F
1E
1D
1C
1A
1@
1?
1=
1<
1;
1:
19
17
16
14
13
11
1/
1-
1,
1+
1*
1(
1'
b10100000000000000000000000000001 ;!
b10100000000000000000000000000001 <!
0e
0d
0c
0a
0`
0_
0]
0\
0[
0Z
0Y
0W
0V
0T
0S
0Q
0O
0M
0L
0K
0J
1I
0H
0E
0D
0C
0A
0@
0?
0=
0<
0;
0:
09
07
06
04
03
01
0/
0-
0,
0+
0*
1)
0(
#86000
b10 g
b10 $
b10100000000000000000000000000010 &
1%
0:!
19!
0w
1v
1x
#90000
0!
0h
#95000
1!
1h
b10 "
0%
0x
0m
1l
b10010001101000101011001111000 ;!
0F
1C
1B
1A
1@
1=
1<
1:
18
14
12
11
1-
1*
0)
0'
b10100000000000000000000000000010 ;!
1E
0C
0B
0A
0@
0=
0<
0:
08
04
02
01
0-
0*
1)
1'
#96000
b11 g
b11 $
b10100000000000000000000000000011 &
1%
1:!
1w
1x
#100000
0!
0h
#105000
1!
1h
b11 "
0%
0x
1m
b1010101010101010101010101010101 ;!
1F
0E
1D
1B
1@
1>
1<
1:
18
16
14
12
10
1.
1,
1*
0)
1(
0'
b10100000000000000000000000000011 ;!
1E
0D
0B
0@
0>
0<
0:
08
06
04
02
00
0.
0,
0*
1)
0(
1'
#106000
b100 g
b100 $
b10100000000000000000000000000100 &
1%
0:!
09!
18!
0w
0v
1u
1x
#110000
0!
0h
#115000
1!
1h
b100 "
0%
0x
0m
0l
1k
b0 ;!
0F
0E
0)
0'
b10100000000000000000000000000100 ;!
1D
1)
1'
#116000
b101 g
b101 $
b10100000000000000000000000000101 &
1%
1:!
1w
1x
#120000
0!
0h
#125000
1!
1h
b101 "
0%
0x
1m
b10101011110011011110111100000000 ;!
0D
1>
1=
1<
1;
19
18
17
16
14
13
10
1/
1.
1-
1+
b10100000000000000000000000000101 ;!
1F
1D
0>
0=
0<
0;
09
08
07
06
04
03
00
0/
0.
0-
0+
#126000
b110 g
b110 $
b10100000000000000000000000000110 &
1%
0:!
19!
0w
1v
1x
#130000
0!
0h
#135000
1!
1h
b110 "
0%
0x
0m
1l
b0 ;!
0F
0D
0)
0'
b10100000000000000000000000000110 ;!
1E
1D
1)
1'
#136000
b111 g
b111 $
b10100000000000000000000000000111 &
1%
1:!
1w
1x
#140000
0!
0h
#145000
1!
1h
b111 "
0%
0x
1m
b0 ;!
0E
0D
0)
0'
b10100000000000000000000000000111 ;!
1F
1E
1D
1)
1'
#146000
b1000 g
b1000 $
b10100000000000000000000000001000 &
1%
0:!
09!
08!
17!
0w
0v
0u
1t
1x
#150000
0!
0h
#155000
1!
1h
b1000 "
0%
0x
0m
0l
0k
1j
b0 ;!
0F
0E
0D
0)
0'
b10100000000000000000000000001000 ;!
1C
1)
1'
#156000
b1001 g
b1001 $
b10100000000000000000000000001001 &
1%
1:!
1w
1x
#160000
0!
0h
#165000
1!
1h
b1001 "
0%
0x
1m
b0 ;!
0C
0)
0'
b10100000000000000000000000001001 ;!
1F
1C
1)
1'
#166000
b1010 g
b1010 $
b10100000000000000000000000001010 &
1%
0:!
19!
0w
1v
1x
#170000
0!
0h
#175000
1!
1h
b1010 "
0%
0x
0m
1l
b0 ;!
0F
0C
0)
0'
b10100000000000000000000000001010 ;!
1E
1C
1)
1'
#176000
b1011 g
b1011 $
b10100000000000000000000000001011 &
1%
1:!
1w
1x
#180000
0!
0h
#185000
1!
1h
b1011 "
0%
0x
1m
b0 ;!
0E
0C
0)
0'
b10100000000000000000000000001011 ;!
1F
1E
1C
1)
1'
#186000
b1100 g
b1100 $
b10100000000000000000000000001100 &
1%
0:!
09!
18!
0w
0v
1u
1x
#190000
0!
0h
#195000
1!
1h
b1100 "
0%
0x
0m
0l
1k
b0 ;!
0F
0E
0C
0)
0'
b10100000000000000000000000001100 ;!
1D
1C
1)
1'
#196000
b1101 g
b1101 $
b10100000000000000000000000001101 &
1%
1:!
1w
1x
#200000
0!
0h
#205000
1!
1h
b1101 "
0%
0x
1m
b0 ;!
0D
0C
0)
0'
b10100000000000000000000000001101 ;!
1F
1D
1C
1)
1'
#206000
b1110 g
b1110 $
b10100000000000000000000000001110 &
1%
0:!
19!
0w
1v
1x
#210000
0!
0h
#215000
1!
1h
b1110 "
0%
0x
0m
1l
b0 ;!
0F
0D
0C
0)
0'
b10100000000000000000000000001110 ;!
1E
1D
1C
1)
1'
#216000
b1111 g
b1111 $
b10100000000000000000000000001111 &
1%
1:!
1w
1x
#220000
0!
0h
#225000
1!
1h
b1111 "
0%
0x
1m
b0 ;!
0E
0D
0C
0)
0'
b10100000000000000000000000001111 ;!
1F
1E
1D
1C
1)
1'
#226000
b10000 g
b10000 $
b10100000000000000000000000010000 &
1%
0:!
09!
08!
07!
16!
0w
0v
0u
0t
1s
1x
#230000
0!
0h
#235000
1!
1h
b10000 "
0%
0x
0m
0l
0k
0j
1i
b0 ;!
0F
0E
0D
0C
0)
0'
b10100000000000000000000000010000 ;!
1B
1)
1'
#236000
b10001 g
b10001 $
b10100000000000000000000000010001 &
1%
1:!
1w
1x
#240000
0!
0h
#245000
1!
1h
b10001 "
0%
0x
1m
b0 ;!
0B
0)
0'
b10100000000000000000000000010001 ;!
1F
1B
1)
1'
#246000
b10010 g
b10010 $
b10100000000000000000000000010010 &
1%
0:!
19!
0w
1v
1x
#250000
0!
0h
#255000
1!
1h
b10010 "
0%
0x
0m
1l
b0 ;!
0F
0B
0)
0'
b10100000000000000000000000010010 ;!
1E
1B
1)
1'
#256000
b10011 g
b10011 $
b10100000000000000000000000010011 &
1%
1:!
1w
1x
#260000
0!
0h
#265000
1!
1h
b10011 "
0%
0x
1m
b0 ;!
0E
0B
0)
0'
b10100000000000000000000000010011 ;!
1F
1E
1B
1)
1'
#266000
b10100 g
b10100 $
b10100000000000000000000000010100 &
1%
0:!
09!
18!
0w
0v
1u
1x
#270000
0!
0h
#275000
1!
1h
b10100 "
0%
0x
0m
0l
1k
b0 ;!
0F
0E
0B
0)
0'
b10100000000000000000000000010100 ;!
1D
1B
1)
1'
#276000
b10101 g
b10101 $
b10100000000000000000000000010101 &
1%
1:!
1w
1x
#280000
0!
0h
#285000
1!
1h
b10101 "
0%
0x
1m
b0 ;!
0D
0B
0)
0'
b10100000000000000000000000010101 ;!
1F
1D
1B
1)
1'
#286000
b10110 g
b10110 $
b10100000000000000000000000010110 &
1%
0:!
19!
0w
1v
1x
#290000
0!
0h
#295000
1!
1h
b10110 "
0%
0x
0m
1l
b0 ;!
0F
0D
0B
0)
0'
b10100000000000000000000000010110 ;!
1E
1D
1B
1)
1'
#296000
b10111 g
b10111 $
b10100000000000000000000000010111 &
1%
1:!
1w
1x
#300000
0!
0h
#305000
1!
1h
b10111 "
0%
0x
1m
b0 ;!
0E
0D
0B
0)
0'
b10100000000000000000000000010111 ;!
1F
1E
1D
1B
1)
1'
#306000
b11000 g
b11000 $
b10100000000000000000000000011000 &
1%
0:!
09!
08!
17!
0w
0v
0u
1t
1x
#310000
0!
0h
#315000
1!
1h
b11000 "
0%
0x
0m
0l
0k
1j
b0 ;!
0F
0E
0D
0B
0)
0'
b10100000000000000000000000011000 ;!
1C
1B
1)
1'
#316000
b11001 g
b11001 $
b10100000000000000000000000011001 &
1%
1:!
1w
1x
#320000
0!
0h
#325000
1!
1h
b11001 "
0%
0x
1m
b0 ;!
0C
0B
0)
0'
b10100000000000000000000000011001 ;!
1F
1C
1B
1)
1'
#326000
b11010 g
b11010 $
b10100000000000000000000000011010 &
1%
0:!
19!
0w
1v
1x
#330000
0!
0h
#335000
1!
1h
b11010 "
0%
0x
0m
1l
b0 ;!
0F
0C
0B
0)
0'
b10100000000000000000000000011010 ;!
1E
1C
1B
1)
1'
#336000
b11011 g
b11011 $
b10100000000000000000000000011011 &
1%
1:!
1w
1x
#340000
0!
0h
#345000
1!
1h
b11011 "
0%
0x
1m
b0 ;!
0E
0C
0B
0)
0'
b10100000000000000000000000011011 ;!
1F
1E
1C
1B
1)
1'
#346000
b11100 g
b11100 $
b10100000000000000000000000011100 &
1%
0:!
09!
18!
0w
0v
1u
1x
#350000
0!
0h
#355000
1!
1h
b11100 "
0%
0x
0m
0l
1k
b0 ;!
0F
0E
0C
0B
0)
0'
b10100000000000000000000000011100 ;!
1D
1C
1B
1)
1'
#356000
b11101 g
b11101 $
b10100000000000000000000000011101 &
1%
1:!
1w
1x
#360000
0!
0h
#365000
1!
1h
b11101 "
0%
0x
1m
b0 ;!
0D
0C
0B
0)
0'
b10100000000000000000000000011101 ;!
1F
1D
1C
1B
1)
1'
#366000
b11110 g
b11110 $
b10100000000000000000000000011110 &
1%
0:!
19!
0w
1v
1x
#370000
0!
0h
#375000
1!
1h
b11110 "
0%
0x
0m
1l
b0 ;!
0F
0D
0C
0B
0)
0'
b10100000000000000000000000011110 ;!
1E
1D
1C
1B
1)
1'
#376000
b11111 g
b11111 $
b10100000000000000000000000011111 &
1%
1:!
1w
1x
#380000
0!
0h
#385000
1!
1h
b11111 "
0%
0x
1m
b11111111111111111111111111111111 ;!
1F
1A
1@
1?
1>
1=
1<
1;
1:
19
18
17
16
15
14
13
12
11
10
1/
1.
1-
1,
1+
1*
1(
b10100000000000000000000000011111 ;!
0A
0@
0?
0>
0=
0<
0;
0:
09
08
07
06
05
04
03
02
01
00
0/
0.
0-
0,
0+
0*
0(
#386000
b100000 g
1%
b0 $
b11011110101011011011111011101111 &
1x
06!
15!
14!
13!
11!
10!
1/!
1.!
1-!
1+!
1*!
1(!
1'!
1%!
1#!
1!!
1~
1}
1|
0{
1z
0w
0v
0u
0t
0s
#390000
0!
0h
#395000
1!
1h
b0 "
0%
0x
0m
0l
0k
0j
0i
b0 ;!
0F
0E
0D
0C
0B
0)
0'
